Daily Covid Summaries
…
library(ggplot2)
library(tidyverse)
library(gapminder)
library(gganimate)
library(gifski)

Read in global data gathered by Johns Hopkins CSSE

Now lets fetch the data, currently it looks like the data is updated every evening around 5 EST. We want the raw data not the formated for humans data (click the Raw button on the right side of the GitHub window).

covid19cases <- read.csv("https://raw.githubusercontent.com/CSSEGISandData/COVID-19/master/csse_covid_19_data/csse_covid_19_time_series/time_series_covid19_confirmed_global.csv", header=TRUE)
tibble(covid19cases)

## # A tibble: 256 x 1
##    covid19cases$Pr~ $Country.Region  $Lat  $Long $X1.22.20 $X1.23.20 $X1.24.20
##    <fct>            <fct>           <dbl>  <dbl>     <int>     <int>     <int>
##  1 ""               Afghanistan      33    65            0         0         0
##  2 ""               Albania          41.2  20.2          0         0         0
##  3 ""               Algeria          28.0   1.66         0         0         0
##  4 ""               Andorra          42.5   1.52         0         0         0
##  5 ""               Angola          -11.2  17.9          0         0         0
##  6 ""               Antigua and Ba~  17.1 -61.8          0         0         0
##  7 ""               Argentina       -38.4 -63.6          0         0         0
##  8 ""               Armenia          40.1  45.0          0         0         0
##  9 "Australian Cap~ Australia       -35.5 149.           0         0         0
## 10 "New South Wale~ Australia       -33.9 151.           0         0         0
## # ... with 246 more rows, and 67 more variables: $X1.25.20 <int>,
## #   $X1.26.20 <int>, $X1.27.20 <int>, $X1.28.20 <int>, $X1.29.20 <int>,
## #   $X1.30.20 <int>, $X1.31.20 <int>, $X2.1.20 <int>, $X2.2.20 <int>,
## #   $X2.3.20 <int>, $X2.4.20 <int>, $X2.5.20 <int>, $X2.6.20 <int>,
## #   $X2.7.20 <int>, $X2.8.20 <int>, $X2.9.20 <int>, $X2.10.20 <int>,
## #   $X2.11.20 <int>, $X2.12.20 <int>, $X2.13.20 <int>, $X2.14.20 <int>,
## #   $X2.15.20 <int>, $X2.16.20 <int>, $X2.17.20 <int>, $X2.18.20 <int>,
## #   $X2.19.20 <int>, $X2.20.20 <int>, $X2.21.20 <int>, $X2.22.20 <int>,
## #   $X2.23.20 <int>, $X2.24.20 <int>, $X2.25.20 <int>, $X2.26.20 <int>,
## #   $X2.27.20 <int>, $X2.28.20 <int>, $X2.29.20 <int>, $X3.1.20 <int>,
## #   $X3.2.20 <int>, $X3.3.20 <int>, $X3.4.20 <int>, $X3.5.20 <int>,
## #   $X3.6.20 <int>, $X3.7.20 <int>, $X3.8.20 <int>, $X3.9.20 <int>,
## #   $X3.10.20 <int>, $X3.11.20 <int>, $X3.12.20 <int>, $X3.13.20 <int>,
## #   $X3.14.20 <int>, $X3.15.20 <int>, $X3.16.20 <int>, $X3.17.20 <int>,
## #   $X3.18.20 <int>, $X3.19.20 <int>, $X3.20.20 <int>, $X3.21.20 <int>,
## #   $X3.22.20 <int>, $X3.23.20 <int>, $X3.24.20 <int>, $X3.25.20 <int>,
## #   $X3.26.20 <int>, $X3.27.20 <int>, $X3.28.20 <int>, $X3.29.20 <int>,
## #   $X3.30.20 <int>, $X3.31.20 <int>

covid19deaths <- read.csv("https://raw.githubusercontent.com/CSSEGISandData/COVID-19/master/csse_covid_19_data/csse_covid_19_time_series/time_series_covid19_deaths_global.csv", header=TRUE)
tibble(covid19deaths)

## # A tibble: 256 x 1
##    covid19deaths$P~ $Country.Region  $Lat  $Long $X1.22.20 $X1.23.20 $X1.24.20
##    <fct>            <fct>           <dbl>  <dbl>     <int>     <int>     <int>
##  1 ""               Afghanistan      33    65            0         0         0
##  2 ""               Albania          41.2  20.2          0         0         0
##  3 ""               Algeria          28.0   1.66         0         0         0
##  4 ""               Andorra          42.5   1.52         0         0         0
##  5 ""               Angola          -11.2  17.9          0         0         0
##  6 ""               Antigua and Ba~  17.1 -61.8          0         0         0
##  7 ""               Argentina       -38.4 -63.6          0         0         0
##  8 ""               Armenia          40.1  45.0          0         0         0
##  9 "Australian Cap~ Australia       -35.5 149.           0         0         0
## 10 "New South Wale~ Australia       -33.9 151.           0         0         0
## # ... with 246 more rows, and 67 more variables: $X1.25.20 <int>,
## #   $X1.26.20 <int>, $X1.27.20 <int>, $X1.28.20 <int>, $X1.29.20 <int>,
## #   $X1.30.20 <int>, $X1.31.20 <int>, $X2.1.20 <int>, $X2.2.20 <int>,
## #   $X2.3.20 <int>, $X2.4.20 <int>, $X2.5.20 <int>, $X2.6.20 <int>,
## #   $X2.7.20 <int>, $X2.8.20 <int>, $X2.9.20 <int>, $X2.10.20 <int>,
## #   $X2.11.20 <int>, $X2.12.20 <int>, $X2.13.20 <int>, $X2.14.20 <int>,
## #   $X2.15.20 <int>, $X2.16.20 <int>, $X2.17.20 <int>, $X2.18.20 <int>,
## #   $X2.19.20 <int>, $X2.20.20 <int>, $X2.21.20 <int>, $X2.22.20 <int>,
## #   $X2.23.20 <int>, $X2.24.20 <int>, $X2.25.20 <int>, $X2.26.20 <int>,
…
Every row is an observation.

Every cell is a single value.

We have 4 variables with location data (Province.State, Country.Region, Lat, Long) and a bunch of columns with each days data. The date columns all read in with X at the beginning of the variable name because R doesnt like variable names to start with numbers. We can use that to specify how to tidy the data. If youve tidied data in R for a while you might have used, melt/cast or gather/spread. The tidyverse has come out with a new way that is a bit more intuitive, pivot_longer/pivot_wider.

cases <- covid19cases %>%
  pivot_longer( cols = starts_with("X"), # I'm specifing the coluns that I want to tidy (use "-" to specify the columns you want to leave alone)
                names_to = "date", # variable name for the variables column
                names_prefix = "X", # let's get rid of the "X" so we can treat dates as dates
                values_to = "confirmedCases") # variable name for the column that will hold the values
tibble(cases)

## # A tibble: 17,920 x 1
##    cases$Province.State $Country.Region  $Lat $Long $date   $confirmedCases
##    <fct>                <fct>           <dbl> <dbl> <chr>             <int>
##  1 ""                   Afghanistan        33    65 1.22.20               0
##  2 ""                   Afghanistan        33    65 1.23.20               0
##  3 ""                   Afghanistan        33    65 1.24.20               0
##  4 ""                   Afghanistan        33    65 1.25.20               0
##  5 ""                   Afghanistan        33    65 1.26.20               0
##  6 ""                   Afghanistan        33    65 1.27.20               0
##  7 ""                   Afghanistan        33    65 1.28.20               0
##  8 ""                   Afghanistan        33    65 1.29.20               0
##  9 ""                   Afghanistan        33    65 1.30.20               0
## 10 ""                   Afghanistan        33    65 1.31.20               0
## # ... with 17,910 more rows

deaths <- covid19deaths %>%
  pivot_longer( cols = starts_with("X"),
                names_to = "date", 
                names_prefix = "X",
                values_to = "deaths")
tibble(deaths)

## # A tibble: 17,920 x 1
##    deaths$Province.State $Country.Region  $Lat $Long $date   $deaths
##    <fct>                 <fct>           <dbl> <dbl> <chr>     <int>
##  1 ""                    Afghanistan        33    65 1.22.20       0
##  2 ""                    Afghanistan        33    65 1.23.20       0
##  3 ""                    Afghanistan        33    65 1.24.20       0
##  4 ""                    Afghanistan        33    65 1.25.20       0
##  5 ""                    Afghanistan        33    65 1.26.20       0
##  6 ""                    Afghanistan        33    65 1.27.20       0
##  7 ""                    Afghanistan        33    65 1.28.20       0
##  8 ""                    Afghanistan        33    65 1.29.20       0
##  9 ""                    Afghanistan        33    65 1.30.20       0
## 10 ""                    Afghanistan        33    65 1.31.20       0
## # ... with 17,910 more rows

Merge the cases and deaths datasets

Both the cases and deaths data seem to match row by row, however I want to join based on a unique key rather than trusting that row 15873 in cases goes with row 15873 in deaths. To join we need to create a unique key for each observation. Initially I thought that Lat/Long would provide that but there were cruise ship observations with the same Lat/Long but different ships. The way that I figured this out was by joining on Lat/Long and seeing that the total number of observations in the new dataframe was larger than the originals. then I looked for duplicates. So were going to create a new variable called join in both dataframes that is just pasting all of our location variables together.

cases$join <- paste(cases$Province.State, cases$Country.Region ,cases$Lat, cases$Long, cases$date)

deaths$join <- paste(deaths$Province.State, deaths$Country.Region,deaths$Lat, deaths$Long, deaths$date)

tibble(cases)

## # A tibble: 17,920 x 1
##    cases$Province.S~ $Country.Region  $Lat $Long $date  $confirmedCases $join   
##    <fct>             <fct>           <dbl> <dbl> <chr>            <int> <chr>   
##  1 ""                Afghanistan        33    65 1.22.~               0 " Afgha~
##  2 ""                Afghanistan        33    65 1.23.~               0 " Afgha~
##  3 ""                Afghanistan        33    65 1.24.~               0 " Afgha~
##  4 ""                Afghanistan        33    65 1.25.~               0 " Afgha~
##  5 ""                Afghanistan        33    65 1.26.~               0 " Afgha~
##  6 ""                Afghanistan        33    65 1.27.~               0 " Afgha~
##  7 ""                Afghanistan        33    65 1.28.~               0 " Afgha~
##  8 ""                Afghanistan        33    65 1.29.~               0 " Afgha~
##  9 ""                Afghanistan        33    65 1.30.~               0 " Afgha~
## 10 ""                Afghanistan        33    65 1.31.~               0 " Afgha~
## # ... with 17,910 more rows

tibble(deaths)

## # A tibble: 17,920 x 1
##    deaths$Province.St~ $Country.Region  $Lat $Long $date  $deaths $join         
##    <fct>               <fct>           <dbl> <dbl> <chr>    <int> <chr>         
##  1 ""                  Afghanistan        33    65 1.22.~       0 " Afghanistan~
##  2 ""                  Afghanistan        33    65 1.23.~       0 " Afghanistan~
##  3 ""                  Afghanistan        33    65 1.24.~       0 " Afghanistan~
##  4 ""                  Afghanistan        33    65 1.25.~       0 " Afghanistan~
##  5 ""                  Afghanistan        33    65 1.26.~       0 " Afghanistan~
##  6 ""                  Afghanistan        33    65 1.27.~       0 " Afghanistan~
##  7 ""                  Afghanistan        33    65 1.28.~       0 " Afghanistan~
##  8 ""                  Afghanistan        33    65 1.29.~       0 " Afghanistan~
##  9 ""                  Afghanistan        33    65 1.30.~       0 " Afghanistan~
## 10 ""                  Afghanistan        33    65 1.31.~       0 " Afghanistan~
## # ... with 17,910 more rows
…
